-------------------------------------------------------------------------------
Test set: com.cybage.ui.AppTest
-------------------------------------------------------------------------------
Tests run: 1, Failures: 0, Errors: 0, Skipped: 0, Time elapsed: 0.032 s - in com.cybage.ui.AppTest
